test1
…
ℹ Use `spec()` to retrieve the full column specification for this data.
ℹ Specify the column types or set `show_col_types = FALSE` to quiet this message.

adult$Arrest.Date <- as.Date(adult$Arrest.Date, format = "%Y-%m-%d")
grouped_adult <- adult |> group_by(Arrest.Date) |> summarize(count = n())
grouped_adult <- head(grouped_adult, -1) 
grouped_adult$count <- grouped_adult$count / sum(grouped_adult$count)
grouped_adult

# A tibble: 1,096 × 2
   Arrest.Date    count
   <date>         <dbl>
 1 2016-01-01  0.00134 
 2 2016-01-02  0.000990
 3 2016-01-03  0.000938
 4 2016-01-04  0.000769
 5 2016-01-05  0.00109 
 6 2016-01-06  0.000691
 7 2016-01-07  0.000990
 8 2016-01-08  0.00136 
 9 2016-01-09  0.00123 
10 2016-01-10  0.00100 
# ℹ 1,086 more rows
…
grouped_juv <- juv |> group_by(ARREST_DATE) |> summarize(count = n()) |> arrange(desc(count))
grouped_juv

# A tibble: 2,286 × 2
   ARREST_DATE count
   <date>      <int>
 1 2023-07-28     61
 2 2022-02-10     41
 3 2023-06-16     35
 4 2023-04-23     32
 5 2023-08-11     32
 6 2023-08-25     29
 7 2016-10-27     27
 8 2023-09-14     27
 9 2018-11-06     26
10 2016-08-30     25
# ℹ 2,276 more rows
…
